fldDate,pathname,type,trigger,R size,D size,crown depth,notes,public notes
1975-02-05,GloryBowl,SS,N,3.0,,,hit road did not cross 10' of deposition,
1975-12-01,GloryBowlLeft&Top,HS,AA,4.0,,48.0,"Ran to Crator Lake, 20' of deposition on road",
1976-01-10,GloryBowl,HS,AA,4.0,,60.0,,
1977-01-04,GloryBowl,SS,N,3.0,,,Reached and closed highway,
1977-04-10,GloryBowl,SS,AS,3.0,,24.0,Remotely triggered from above.  20 feet of debris on road.,
1977-12-23,glorybowl,SS,,,,,,
1978-02-19,GloryBowl,SS,N,3.0,,,3 feet of debris on road,
1978-12-01,glory,SS,N,3.0,,24.0,8 feet deep on road 150 wide,
1979-01-02,glory bowl,SS,N,3.0,,36.0,"started at roll on top, 1' on road",
1979-02-08,glory bowl,SS,AA,3.0,,,2 slides,
1979-02-08,glory bowl,SS,AA,3.0,,,2 slides,
1979-03-02,glory bowl,SS,N,,,,,
1980-01-05,glory bowl,SS,N,3.0,,,6'-8' on road,
1980-01-14,glorybowlleft,SS,,2.0,,12.0,did not reach road,
1980-01-14,glorybowlright,SS,,3.0,,30.0,7 feet of debris on road,
1981-02-02,GLORY BOWLLeft Side,SS,N,4.0,,36.0,ACROSS road TO WITHIN 400 FEET OF LAKE,
1981-12-15,GLORY BOWL,SS,N,3.0,,30.0,CLOSED THE ROAD DURING FRONTAL PASSAGE,
1982-04-01,GloryBowl,SS,N,3.0,,,debris 4 to 5 feet deep 100' across road,
1982-04-01,GloryBowl,SS,N,4.0,,,debris 18 feet deep 100' across road,
1983-02-11,GLORY BOWL,SS,N,3.0,,36.0,,
1983-03-31,GLORY BOWL LEFT SIDE,SS,AA,3.0,,40.0,,
1984-01-24,GLORY BOWL LOW LEFT SIDE CLIFF BAND,SS,N,2.0,,,5 FEET OF DEBRIS ON ROAD SMALL SLIDE,
1984-12-23,GLORY BOWL,SS,N,4.0,,,30' on road,
1985-11-24,GLORY BOWL,SS,N,3.0,,,COVERED HIGHWAY,
1986-01-07,GLORY BOWL,SS,AA,3.0,,,12 FEET OF DEPOSITION ON THE HIGHWAY,
1986-02-13,GLORY BOWL,SS,,,,,,
1986-02-18,GLORY BOWL,SS,AA,4.0,,72.0,,
1986-02-23,GLORY BOWL,HS,AA,5.0,,,,
1987-01-02,GLORY BOWL,SS,N,3.0,,,,
1988-01-11,GLORY BOWL,SS,N,4.0,,36.0,SNOWPLOW OPERATOR CAUGHT AND BURIED,
1988-11-14,GLORY BOWL,SS,N,3.0,,,DEBRIS PASSED HIGHWAY CLOSED TETON PASS,
1988-11-23,GLORY BOWL,SS,N,2.0,,,ACROSS THE HIGHWAY,
1989-01-10,GLORY BOWL,SS,AA,4.0,,,,
1989-01-23,GLORY BOWL,SS,N,3.0,,,2 FEET ON HIGHWAY,
1989-03-17,GLORY BOWL,SS,AA,3.0,,,ROAD CLOSED BEFORE SHOOTING,
1989-04-02,GLORY BOWL,SS,N,3.0,,,CLOSED ROAD TETON PASS,
1990-01-08,GLORY BOWL,SS,N,2.0,,24.0,,
1990-01-30,GLORY BOWL,HS,AA,4.0,,60.0,,
1990-03-16,GLORY BOWL,SS,N,2.0,,,at night,
1990-12-28,GLORY BOWL,SS,AA,1.0,,,,
1990-12-29,GLORY BOWL,SS,N,2.0,,,,
1991-03-05,GLORY BOWL-EAST FACE,HS,AA,4.0,,,15' ON ROAD  to Crator lake,
1992-12-04,GLORY BOWL,SS,AX,2.0,,24.0,,
1992-12-05,GLORY BOWL-RIGHT,SS,N,2.0,,12.0,,
1992-12-23,GLORY BOWL,SS,AX,3.0,,48.0,HIT ROAD,
1992-12-30,GLORY BOWL,SS,AX,2.0,,,RAN 700',
1993-01-12,glory,SS,AA,2.0,,,600',
1993-01-17,glory bowl,SS,AS,1.0,,12.0,skiiers left,
1993-02-14,glory bowl,SS,AS,2.0,,19.0,east facing under upper cliff band,
1993-03-16,glory bowl,SS,AX,2.0,,18.0,did not reach road,
1993-11-28,glory bowl,SS,AS,2.0,,6.0,s side,
1993-12-01,glory bowl,SS,AX,1.0,,3.0,exploder tests,
1993-12-24,gloryBowlEastFace,SS,AS,2.0,,24.0,skier slide 150 feet,
1994-01-04,glory bowl,SS,AS,2.0,,18.0,gut of glory bowl,
1994-01-12,glory bowl,SS,AS,,,24.0,two wind loaded pockets,
1994-02-08,glory,SS,AX,3.0,,,2 feet on road,
1994-02-24,glory bowl,SS,AX,3.0,,36.0,6 to 8 feet deep on road,
1994-02-24,glory bowl,SS,N,2.0,,24.0,slide twice 2 feet deep by 120 wide on road,
1994-03-23,glory bowl,SS,AS,1.0,,24.0,skiier caught,
1995-01-08,Glory,SS,N,3.0,,,closed road,
1995-01-08,glory,SS,AX,2.0,,,2 slides,
1995-01-28,Glory,SS,AS,1.0,,8.0,,
1995-03-06,glory bowl,L,N,1.0,,18.0,top center under cornice,
1995-03-22,glory,SS,AX,1.0,,16.0,,
1995-03-22,glory,SS,AX,1.0,,12.0,,
1995-12-06,glory bowl,SS,AX,2.0,,12.0,couple of slides ran 900',
1996-01-24,glory bowl,SS,AO,4.0,,48.0,drifting snow and sluffing that haven't come down before,
1996-02-24,Glory,SS,AX,2.0,,24.0,ran 900 feet,
1996-12-21,glory bowl,SS,AX,4.0,,36.0,1.5 to 3 feet deep along 90 feet of the road,
1996-12-27,glory,SS,N,3.0,,,,
1997-01-10,glory bowl,SS,AX,3.0,,,10 feet deep on road for 140 feet,
1997-01-22,glory bowl,SS,N,4.0,,,one foot across road,
1997-01-23,glory bowl,SS,AX,2.0,,36.0,,
1997-01-25,glory bowl banks,SS,N,,,,1' on road,
1997-01-26,glory bowl,SS,AA,4.0,,48.0,,
1998-01-11,glory bowl,SS,N,3.0,,,10' on rd,
1998-01-12,glory,SS,AX,4.0,,60.0,16' along 200 yds,
1999-02-03,glory,SS,AX,2.0,,12.0,did not make road,
1999-02-09,se ridge of mt glory,SS,AS,1.0,,20.0,9900',
1999-02-17,glory,SS,AX,2.0,,,,
1999-02-17,se ridge of glory,SS,AS,1.0,,18.0,,
1999-04-09,glory south aspect,HS,AS,1.0,,8.0,"audible ""crack""",
1999-04-11,glory bowl,WL,AS,1.0,,,,
1999-12-17,glory,SS,,2.0,,24.0,,
1999-12-17,glory bowl,SS,AX,2.0,,24.0,,
1999-12-21,glory top mid,SS,AD,2.0,,24.0,,
2000-02-13,glory bowl,SS,AX,2.0,,,,
2000-11-20,glory bowl,SS,AS,1.0,,12.0,"artificially triggered, slab avalanche",
2000-12-01,glory bowl skiers right,SS,AD,3.0,2.5,24.0,snowboarder died 6 feet deep just above Hwy,
2000-12-10,glory bowl,SS,AO,,,,"ran fast and far, didn't hit road 25 pound charge from helicopter",
2000-12-14,glory bowl,SS,N,2.0,,,put 5 to 6 feet of debris on raod,
2000-12-15,Glory,SS,AA,4.0,,,25 feet deep on road 150 feet along road,
2000-12-18,sw ridge glory,HS,N,4.0,,,debris meter blocks,
2001-01-21,"se, s, and sw aspects glory",SS,AS,1.0,,8.0,,
2001-02-08,glory bowl right side,SS,AS,2.0,,,,
2001-02-26,glory bowl,SS,AX,1.0,,6.0,,
2001-04-04,glory bowl,SS,AX,2.0,,18.0,,
2001-04-15,glory bowl,SS,AX,2.0,,24.0,,
2001-12-01,Mt. Glory N Aspect,SS,N,2.0,,36.0,"9,500 feet",
2001-12-01,Mt. Glory NE Aspect,SS,N,2.0,,18.0,"9,500 feet",
2001-12-01,Glory Bowl,SS,AX,3.0,,,Skiers Right side,
2001-12-03,East Glory Ridge E Aspect,SS,AE,2.0,,18.0,,
2001-12-06,Glory Bowl,SS,N,3.0,,,,
2002-01-21,Glory Bowl,SS,AX,3.0,,,Hit Road,
2002-01-31,North of Glory,HS,AS,3.0,,36.0,,
2002-03-07,Glory,SS,AX,2.0,,12.0,WYDOT SHOT ALL FOUR NOTHING HIT HIGHWAY,
2002-04-13,Glory Bowl,WL,N,1.0,,10.0,Two events,
2002-11-11,Glory Slide Path,L,AX,2.0,,,WYDOT GasEX,
2002-12-28,Glory Gunners Left below Cliff,SS,AA,3.0,,36.0,,
2002-12-28,Glory,SS,AX,3.0,,36.0,No 4 Exploder,
2003-02-17,Glory,SS,AX,2.0,,24.0,,
2003-02-22,glory right,SS,AX,3.0,,24.0,,
2003-03-26,GloryBowl,SS,AX,2.0,,24.0,Ran to just above highway,
2003-11-17,gloryskiersright,SS,AX,2.0,,,,
2003-12-07,gullynorthofgloryneaspect,SS,AS,1.0,,14.0,,
2003-12-30,Glory,SS,AE,3.0,,,"4' on road, safeguard trigger",
2004-11-26,Glory Bowl- skiers right,SS,AS,2.0,,,"snowboarder triggered, caught, over cliffs, not injured or burried",
2004-12-08,Glory,SS,AX,3.0,,36.0,across highway,
2004-12-08,Glory,SS,AX,3.0,,36.0,across highway,
2004-12-09,Glory,SS,AX,2.0,,36.0,not to highway,
2004-12-31,glory  bowl,SS,N,,,,"covered road with 5' of debris, car drove into",
2005-01-08,Glory Bowl,SS,N,3.0,,,Hit and closed road,
2005-01-08,Glory Bowl,SS,AX,2.0,,,Did not hit road,
2005-02-20,RoadCutjustNGloryBowl,SS,AS,3.0,,12.0,Skier caught &buried w hand showing. Dug out by motorist. To Hospitol?,
2005-02-22,Gloryfirstturn,SS,AS,1.0,,,,
2005-11-15,GloryBowl,SS,AS,1.0,,12.0,Ran on melt-freeze crust on all but northerly aspect,
2005-12-02,Glory,SS,AX,3.0,,,,
2005-12-29,Glory,SS,AE,3.0,,24.0,,
2005-12-29,GlorySkiersRightCliffband,SS,AS,2.0,,,,
2006-01-01,Glory,SS,AX,2.0,,18.0,,
2006-01-18,Glory bowl,SS,AE,2.0,,18.0,Debris just short of the road,
2006-04-04,GloryBowl,WL,AS,1.0,,8.0,below first cliff band,
2006-12-14,GloryBowl,SS,AX,3.0,,36.0,Shallow debris (2 to 4') on road,
2007-02-13,Glorybowlgut,SS,AS,1.0,,10.0,,
2007-12-20,GloryBowlNEAspect,SS,AX,1.0,,12.0,,
2008-01-06,glorybowl,SS,AE,2.0,,18.0,"WYDOT contol,  infrasonics showed almost reached road",
2008-01-11,Glory,SS,AX,2.0,,24.0,,
2008-01-28,Glorybowl,SS,AE,3.0,,18.0,WYDOT control work. Debris just reached highway.,
2008-02-01,GloryBowl,SS,AS,2.0,,18.0,Skiers right under cliffband,
2008-03-02,glorybowl,SS,AS,1.0,,10.0,,
2008-12-14,Glory,SS,AX,2.0,,36.0,GasEx triggered to facets above ground.  Did not propogate far or entrain much snow,
2008-12-22,Glory,SS,AX,2.0,,36.0,,
2008-12-26,Glory,SS,AX,3.0,,,across highway 25 to 30 feet deep,
2008-12-26,Glory,SS,N,3.0,,,across  hwy 10 feet deep for 50 feet,
2008-12-30,glorynearGAZEX,SS,AX,2.0,,48.0,old -filled in crown,
2008-12-30,gloryskiersrtbelowcliffband,SS,AE,3.0,,48.0,Heli bombed put 45' on road,
2009-03-10,GloryBowl,SS,AS,1.0,,24.0,Skier caught and carried short distance before arresting.,
2009-03-11,GloryBowl,SS,AX,2.0,,12.0,WYDOT GazEx,
2009-03-25,Glory,SS,N,3.0,,24.0,"Croosed and closed the highway with 3 feet of debris,  very fast moving (infrasonic)",
2009-03-29,GlorySkiersRt,SS,AS,2.0,,18.0,ran past first cliffband,
2009-12-11,Glory Gut,HS,AS,1.0,1.5,18.0,,
2009-12-14,Glory Bowl Skiers Left,SS,AX,2.0,2.0,15.0,GASEX Triggered,GASEX Triggered
2009-12-14,Glory Bowl Skiers Right,SS,AX,2.0,2.0,15.0,GASEX Triggered,GASEX Triggered
2010-01-24,Glory Bowl,SS,AX,3.0,3.0,36.0,,4 to 5 feet of Debris across Highway.
2010-01-24,Glory Bowl,SS,AX,3.0,3.0,36.0,,Debris ended just short of Highway.
2010-03-27,Glory,L,AS,1.0,1.0,16.0,,
2010-05-02,Glory Bowl,SS,AS,1.0,1.0,8.0,,
2010-11-16,Glory Peak,SS,AX,2.0,2.0,18.0,,"Debris to Waterfall, not road."
2010-11-16,Glory Peak,SS,AX,2.0,2.0,18.0,,"Debris to Waterfall, not road."
2010-11-23,Glory Bowl,SS,,2.0,2.0,,hit car?,"Ran to Highway, trigger not confirmed"
2010-12-29,Glory NE Ridge,L,AS,1.0,1.0,10.0,,
2011-01-01,GloryBowl,HS,AS,2.0,1.5,24.0,,New slide on slope welll skied day before.
2011-01-17,GloryBowlsouth,SS,AX,1.0,1.0,10.0,,
2011-02-08,GloryBowl,SS,AX,2.0,2.0,8.0,,
2011-02-23,Glory,SS,AX,2.0,2.0,24.0,,Slide but not as far as the highway
2011-02-23,Glory South,SS,AX,2.0,2.0,24.0,,Slide but not as far as the highway
2011-12-29,Glory Bowl,SS,AX,2.0,2.0,,,Detected by infrasonic sensor to have run to just above the highway
2011-12-31,Glory Bowl Skiers Right,SS,AR,1.0,1.5,24.0,,Snow boarder caught and swept over cliff but not buried
2012-01-19,Glory Bowl Skiers Right,SS,AO,3.0,3.0,,,GazEx triggered debris onto the roadway
2012-01-19,Glory Bowl Skiers Left,SS,AO,2.0,2.5,,,GazEx triggered debris to the roadway
2012-01-20,Glory,SS,AO,3.0,2.5,,,Large slide
2012-01-20,Glory,SS,AO,3.0,3.0,,,Large slide
2012-12-01,Top of Glory Skiers Right,SS,AS,1.0,1.0,6.0,,
2012-12-01,Top of Glory Skiers Left,SS,AS,1.0,1.0,8.0,,
2013-02-27,Glory Bowl,HS,AS,1.0,1.5,20.0,,
2013-03-03,E Ridge of Glory,SS,N,1.0,1.0,10.0,,Soft slab.  Looked to have gone naturally.  Ran most of the steep section midway down a typical descent of Glory's E Ridge as one heads towards the further N drainage (away from Glory Bowl)
2013-03-03,E Ridge of Glory,SS,AS,2.0,2.0,10.0,,"Ski cutting in hopes of getting the lower cliffband of the steep section to rip.  It did and propagated S to N across the face for ~200 feet.  It ran through the steep sections below and deposited debris in the exceptionally flat terrain directly below.  Nasty, slick crust layer under the windloaded fresh.  Sketchy day on windloaded aspects."
2013-03-03,NE Ridge of Glory,SS,AR,1.0,1.0,10.0,,Skier/boarder triggered on the SE aspect of the NE Ridge in the short little chute through the cliffbands a few hundred feet below the summit of Glory.  Heavy winds loading E facing slopes.
2013-03-22,Glory Bowl,SS,AO,1.0,1.5,18.0,,Trigger by a GazEx
2013-12-03,Glory Bowl,SS,AO,3.0,3.0,,,A large and very fast moving slide put a lot of debris on the highway up to ten feet deep.  GazEX triggered.
2013-12-09,Glory bootpack trees,SS,AS,1.0,1.0,3.0,,wind slab
2013-12-24,Glory Bowl,SS,AO,2.0,2.0,24.0,,GazEx
2014-01-11,Glory Bowl,SS,AX,3.0,3.0,,,GazEx triggered slide crossed the highway
2014-02-08,Glory Bowl,SS,AX,2.0,2.5,,,Slide artificially triggered by WYDOT with a GazEx Exploder.  The fast moving slide ran across the Teton Pass Highway.
2014-02-13,Glory,SS,AX,1.0,1.5,18.0,,GazEx triggered
2014-02-16,Glory Bowl East Apron,SS,,2.0,2.0,36.0,,
2014-03-02,Glory Bowl,SS,AX,2.0,2.5,30.0,,GazEx triggered by the Wyoming Department of Transportation.  Fast moving to highway with four to five feet of deposition on the road
2014-03-09,Glory Bowl,HS,AS,1.0,1.0,6.0,,Small 50 feet x 50 feet wind slab was skier triggered (by another party). This was a small surface slab less than 12 deep.  Precise location not provided.
2014-03-11,Glory,SS,AS,1.0,1.0,10.0,,
2014-03-30,SE Ridge Glory,SS,AS,1.0,1.0,6.0,,constriction through rock band on SE ridge.  ran down to the flat zone.
2015-02-03,Glory Bowl Skiers Right,SS,AS,1.0,1.5,12.0,,
2015-02-04,Glory,SS,AO,2.0,2.0,24.0,Gazex across the highway,
2015-02-04,Glory Right,SS,AE,2.0,1.5,18.0,,
2015-12-14,Glory Bowl,SS,AS,1.0,1.0,12.0,,Triggered from cornice area between GazEx units.  Ran 100 feet.
2015-12-22,Glory Bowl,SS,AX,3.0,3.0,,,Debris on road three to four feet deep for 100 feet of the roadway
2016-03-29,Mt Glory NE Ridge,HS,AS,2.0,2.0,12.0,,ski cut on wind loaded terrain. similar slide on southern aspect in Glory bowl.
